R para Ciência de Dados I
…
---
<br><br>

Agora como tibble.

.tiny[

```r
tibble::as_tibble(mtcars)
```

```
## # A tibble: 32 x 11
##      mpg   cyl  disp    hp  drat    wt  qsec    vs    am  gear  carb
##    <dbl> <dbl> <dbl> <dbl> <dbl> <dbl> <dbl> <dbl> <dbl> <dbl> <dbl>
##  1  21       6  160    110  3.9   2.62  16.5     0     1     4     4
##  2  21       6  160    110  3.9   2.88  17.0     0     1     4     4
##  3  22.8     4  108     93  3.85  2.32  18.6     1     1     4     1
##  4  21.4     6  258    110  3.08  3.22  19.4     1     0     3     1
##  5  18.7     8  360    175  3.15  3.44  17.0     0     0     3     2
##  6  18.1     6  225    105  2.76  3.46  20.2     1     0     3     1
##  7  14.3     8  360    245  3.21  3.57  15.8     0     0     3     4
##  8  24.4     4  147.    62  3.69  3.19  20       1     0     4     2
##  9  22.8     4  141.    95  3.92  3.15  22.9     1     0     4     2
## 10  19.2     6  168.   123  3.92  3.44  18.3     1     0     4     4
## # … with 22 more rows
```
…
---
<br><br>

O objeto resultante é uma tibble com a base IMDB:

.tiny[

```r
imdb_csv
```

```
## # A tibble: 3,713 x 15
##    titulo   ano diretor duracao cor   generos pais  classificacao orcamento receita
##    <chr>  <dbl> <chr>     <dbl> <chr> <chr>   <chr> <chr>             <dbl>   <dbl>
##  1 Avata…  2009 James …     178 Color Action… USA   A partir de … 237000000  7.61e8
##  2 Pirat…  2007 Gore V…     169 Color Action… USA   A partir de … 300000000  3.09e8
##  3 The D…  2012 Christ…     164 Color Action… USA   A partir de … 250000000  4.48e8
##  4 John …  2012 Andrew…     132 Color Action… USA   A partir de … 263700000  7.31e7
##  5 Spide…  2007 Sam Ra…     156 Color Action… USA   A partir de … 258000000  3.37e8
##  6 Tangl…  2010 Nathan…     100 Color Advent… USA   Livre         260000000  2.01e8
##  7 Aveng…  2015 Joss W…     141 Color Action… USA   A partir de … 250000000  4.59e8
##  8 Batma…  2016 Zack S…     183 Color Action… USA   A partir de … 250000000  3.30e8
##  9 Super…  2006 Bryan …     169 Color Action… USA   A partir de … 209000000  2.00e8
## 10 Pirat…  2006 Gore V…     151 Color Action… USA   A partir de … 225000000  4.23e8
## # … with 3,703 more rows, and 5 more variables: nota_imdb <dbl>,
## #   likes_facebook <dbl>, ator_1 <chr>, ator_2 <chr>, ator_3 <chr>
```
…
