Introdução à programação em R
…
---

## arrange

> Ordenar linhas da base de acordo com alguma variável

```r
imdb %>% 
  arrange(orcamento)
```

```
## # A tibble: 3,807 x 15
##    titulo   ano diretor duracao cor   generos pais  classificacao orcamento
##    <chr>  <int> <chr>     <int> <chr> <chr>   <chr> <chr>             <int>
##  1 Tarna…  2003 Jonath…      88 Color Biogra… USA   Outros              218
##  2 My Da…  2004 Jon Gu…      90 Color Docume… USA   Livre              1100
##  3 A Pla…  2013 Benjam…      76 Color Drama|… USA   Outros             1400
##  4 The M…  2005 Anthon…      84 Color Crime|… USA   A partir de …      3250
##  5 Prime…  2004 Shane …      77 Color Drama|… USA   A partir de …      7000
##  6 El Ma…  1992 Robert…      81 Color Action… USA   A partir de …      7000
##  7 Newly…  2011 Edward…      95 Color Comedy… USA   Outros             9000
##  8 Pink …  1972 John W…     108 Color Comedy… USA   A partir de …     10000
##  9 The T…  2007 Jane C…       7 Color Romanc… USA   Outros            13000
## 10 Paran…  2007 Oren P…      84 Color Horror  USA   A partir de …     15000
## # … with 3,797 more rows, and 6 more variables: receita <int>,
## #   nota_imdb <dbl>, likes_facebook <int>, ator_1 <chr>, ator_2 <chr>,
## #   ator_3 <chr>
```

---

## arrange

> Você também pode ordenar na ordem decrescente

```r
imdb %>% 
  arrange(desc(orcamento))
```

```
## # A tibble: 3,807 x 15
##    titulo   ano diretor duracao cor   generos pais  classificacao orcamento
##    <chr>  <int> <chr>     <int> <chr> <chr>   <chr> <chr>             <int>
##  1 Pirat…  2007 Gore V…     169 Color Action… USA   A partir de … 300000000
##  2 John …  2012 Andrew…     132 Color Action… USA   A partir de … 263700000
##  3 Tangl…  2010 Nathan…     100 Color Advent… USA   Livre         260000000
##  4 Spide…  2007 Sam Ra…     156 Color Action… USA   A partir de … 258000000
##  5 Spide…  2007 Sam Ra…     156 Color Action… USA   A partir de … 258000000
##  6 The D…  2012 Christ…     164 Color Action… USA   A partir de … 250000000
##  7 Aveng…  2015 Joss W…     141 Color Action… USA   A partir de … 250000000
##  8 Batma…  2016 Zack S…     183 Color Action… USA   A partir de … 250000000
##  9 Pirat…  2011 Rob Ma…     136 Color Action… USA   A partir de … 250000000
## 10 Capta…  2016 Anthon…     147 Color Action… USA   A partir de … 250000000
## # … with 3,797 more rows, and 6 more variables: receita <int>,
## #   nota_imdb <dbl>, likes_facebook <int>, ator_1 <chr>, ator_2 <chr>,
## #   ator_3 <chr>
```

---

## arrange

> Também é possível ordenar por mais de uma variável:

```r
imdb %>% 
  arrange(desc(ano), titulo)
```

```
## # A tibble: 3,807 x 15
##    titulo   ano diretor duracao cor   generos pais  classificacao orcamento
##    <chr>  <int> <chr>     <int> <chr> <chr>   <chr> <chr>             <int>
##  1 10 Cl…  2016 Dan Tr…     104 Color Drama|… USA   A partir de …  15000000
##  2 13 Ho…  2016 Michae…     144 Color Action… USA   A partir de …  50000000
##  3 A Beg…  2016 Mitche…      87 Color Comedy… USA   Outros               NA
##  4 Alice…  2016 James …     113 Color Advent… USA   Livre         170000000
##  5 Alleg…  2016 Robert…     120 Color Action… USA   A partir de … 110000000
##  6 Allel…  2016 Darren…      97 Color Horror… USA   Outros           500000
##  7 Antib…  2016 Danny …      94 Color Horror  USA   Outros          3500000
##  8 Bad M…  2016 Jon Lu…     100 Color Comedy  USA   A partir de …  20000000
##  9 Bad M…  2016 Jon Lu…     100 Color Comedy  USA   A partir de …  20000000
## 10 Batma…  2016 Zack S…     183 Color Action… USA   A partir de … 250000000
## # … with 3,797 more rows, and 6 more variables: receita <int>,
## #   nota_imdb <dbl>, likes_facebook <int>, ator_1 <chr>, ator_2 <chr>,
## #   ator_3 <chr>
```
…
---

## select

> Selecionar colunas de uma tabela

```r
imdb %>% 
  select(titulo, ano, orcamento)
```

```
## # A tibble: 3,807 x 3
##    titulo                                        ano orcamento
##    <chr>                                       <int>     <int>
##  1 Avatar                                       2009 237000000
##  2 Pirates of the Caribbean: At World's End     2007 300000000
##  3 The Dark Knight Rises                        2012 250000000
##  4 John Carter                                  2012 263700000
##  5 Spider-Man 3                                 2007 258000000
##  6 Tangled                                      2010 260000000
##  7 Avengers: Age of Ultron                      2015 250000000
##  8 Batman v Superman: Dawn of Justice           2016 250000000
##  9 Superman Returns                             2006 209000000
## 10 Pirates of the Caribbean: Dead Man's Chest   2006 225000000
## # … with 3,797 more rows
```

---

## select

> Funções úteis p/ seleção

```r
imdb %>% 
  select(starts_with("ator"))
```

```
## # A tibble: 3,807 x 3
##    ator_1          ator_2            ator_3              
##    <chr>           <chr>             <chr>               
##  1 CCH Pounder     Joel David Moore  Wes Studi           
##  2 Johnny Depp     Orlando Bloom     Jack Davenport      
##  3 Tom Hardy       Christian Bale    Joseph Gordon-Levitt
##  4 Daryl Sabara    Samantha Morton   Polly Walker        
##  5 J.K. Simmons    James Franco      Kirsten Dunst       
##  6 Brad Garrett    Donna Murphy      M.C. Gainey         
##  7 Chris Hemsworth Robert Downey Jr. Scarlett Johansson  
##  8 Henry Cavill    Lauren Cohan      Alan D. Purwin      
##  9 Kevin Spacey    Marlon Brando     Frank Langella      
## 10 Johnny Depp     Orlando Bloom     Jack Davenport      
## # … with 3,797 more rows
```

---

## select

> Excluir variáveis:

```r
imdb %>% 
  select(-starts_with("ator"), -titulo)
```

```
## # A tibble: 3,807 x 11
##      ano diretor duracao cor   generos pais  classificacao orcamento
##    <int> <chr>     <int> <chr> <chr>   <chr> <chr>             <int>
##  1  2009 James …     178 Color Action… USA   A partir de … 237000000
##  2  2007 Gore V…     169 Color Action… USA   A partir de … 300000000
##  3  2012 Christ…     164 Color Action… USA   A partir de … 250000000
##  4  2012 Andrew…     132 Color Action… USA   A partir de … 263700000
##  5  2007 Sam Ra…     156 Color Action… USA   A partir de … 258000000
##  6  2010 Nathan…     100 Color Advent… USA   Livre         260000000
##  7  2015 Joss W…     141 Color Action… USA   A partir de … 250000000
##  8  2016 Zack S…     183 Color Action… USA   A partir de … 250000000
##  9  2006 Bryan …     169 Color Action… USA   A partir de … 209000000
## 10  2006 Gore V…     151 Color Action… USA   A partir de … 225000000
## # … with 3,797 more rows, and 3 more variables: receita <int>,
## #   nota_imdb <dbl>, likes_facebook <int>
```
…
---

## mutate

> Criar ou modificar colunas de um banco de dados.

```r
imdb %>% mutate(duracao = duracao/60)
```

```
## # A tibble: 3,807 x 15
##    titulo   ano diretor duracao cor   generos pais  classificacao orcamento
##    <chr>  <int> <chr>     <dbl> <chr> <chr>   <chr> <chr>             <int>
##  1 Avata…  2009 James …    2.97 Color Action… USA   A partir de … 237000000
##  2 Pirat…  2007 Gore V…    2.82 Color Action… USA   A partir de … 300000000
##  3 The D…  2012 Christ…    2.73 Color Action… USA   A partir de … 250000000
##  4 John …  2012 Andrew…    2.2  Color Action… USA   A partir de … 263700000
##  5 Spide…  2007 Sam Ra…    2.6  Color Action… USA   A partir de … 258000000
##  6 Tangl…  2010 Nathan…    1.67 Color Advent… USA   Livre         260000000
##  7 Aveng…  2015 Joss W…    2.35 Color Action… USA   A partir de … 250000000
##  8 Batma…  2016 Zack S…    3.05 Color Action… USA   A partir de … 250000000
##  9 Super…  2006 Bryan …    2.82 Color Action… USA   A partir de … 209000000
## 10 Pirat…  2006 Gore V…    2.52 Color Action… USA   A partir de … 225000000
## # … with 3,797 more rows, and 6 more variables: receita <int>,
## #   nota_imdb <dbl>, likes_facebook <int>, ator_1 <chr>, ator_2 <chr>,
## #   ator_3 <chr>
```

---

## mutate

> Criando uma nova variável

```r
imdb %>% mutate(duracao_horas = duracao/60)
```

```
## # A tibble: 3,807 x 16
##    titulo   ano diretor duracao cor   generos pais  classificacao orcamento
##    <chr>  <int> <chr>     <int> <chr> <chr>   <chr> <chr>             <int>
##  1 Avata…  2009 James …     178 Color Action… USA   A partir de … 237000000
##  2 Pirat…  2007 Gore V…     169 Color Action… USA   A partir de … 300000000
##  3 The D…  2012 Christ…     164 Color Action… USA   A partir de … 250000000
##  4 John …  2012 Andrew…     132 Color Action… USA   A partir de … 263700000
##  5 Spide…  2007 Sam Ra…     156 Color Action… USA   A partir de … 258000000
##  6 Tangl…  2010 Nathan…     100 Color Advent… USA   Livre         260000000
##  7 Aveng…  2015 Joss W…     141 Color Action… USA   A partir de … 250000000
##  8 Batma…  2016 Zack S…     183 Color Action… USA   A partir de … 250000000
##  9 Super…  2006 Bryan …     169 Color Action… USA   A partir de … 209000000
## 10 Pirat…  2006 Gore V…     151 Color Action… USA   A partir de … 225000000
## # … with 3,797 more rows, and 7 more variables: receita <int>,
## #   nota_imdb <dbl>, likes_facebook <int>, ator_1 <chr>, ator_2 <chr>,
## #   ator_3 <chr>, duracao_horas <dbl>
```
…
---

## group_by + summarise

> Sumarisar/Agregar a base por grupos

```r
imdb %>% group_by(ano)
```

```
## # A tibble: 3,807 x 15
## # Groups:   ano [91]
##    titulo   ano diretor duracao cor   generos pais  classificacao orcamento
##    <chr>  <int> <chr>     <int> <chr> <chr>   <chr> <chr>             <int>
##  1 Avata…  2009 James …     178 Color Action… USA   A partir de … 237000000
##  2 Pirat…  2007 Gore V…     169 Color Action… USA   A partir de … 300000000
##  3 The D…  2012 Christ…     164 Color Action… USA   A partir de … 250000000
##  4 John …  2012 Andrew…     132 Color Action… USA   A partir de … 263700000
##  5 Spide…  2007 Sam Ra…     156 Color Action… USA   A partir de … 258000000
##  6 Tangl…  2010 Nathan…     100 Color Advent… USA   Livre         260000000
##  7 Aveng…  2015 Joss W…     141 Color Action… USA   A partir de … 250000000
##  8 Batma…  2016 Zack S…     183 Color Action… USA   A partir de … 250000000
##  9 Super…  2006 Bryan …     169 Color Action… USA   A partir de … 209000000
## 10 Pirat…  2006 Gore V…     151 Color Action… USA   A partir de … 225000000
## # … with 3,797 more rows, and 6 more variables: receita <int>,
## #   nota_imdb <dbl>, likes_facebook <int>, ator_1 <chr>, ator_2 <chr>,
## #   ator_3 <chr>
```

---

## group_by + summarise

> Agregar/Sumarisar por grupos

```r
imdb %>% group_by(ano) %>% summarise(qtd_filmes = n())
```

```
## # A tibble: 91 x 2
##      ano qtd_filmes
##    <int>      <int>
##  1  1916          1
##  2  1920          1
##  3  1925          1
##  4  1929          1
##  5  1930          1
##  6  1932          1
##  7  1933          2
##  8  1934          1
##  9  1935          1
## 10  1936          2
## # … with 81 more rows
```
…
