R para Ciência de Dados I
…
# Selecionando colunas

Para selecionar colunas, utilizamos a função `select()`.

O primeiro argumento da função é a base de dados e os demais argumentos são os nomes das colunas que você gostaria de selecionar. Repare que você não precisa colocar o nome da coluna entre aspas.

.tiny[

```r
select(imdb, titulo)
```

```
## # A tibble: 3,713 x 1
##    titulo                                    
##    <chr>                                     
##  1 Avatar                                    
##  2 Pirates of the Caribbean: At World's End  
##  3 The Dark Knight Rises                     
##  4 John Carter                               
##  5 Spider-Man 3                              
##  6 Tangled                                   
##  7 Avengers: Age of Ultron                   
##  8 Batman v Superman: Dawn of Justice        
##  9 Superman Returns                          
## 10 Pirates of the Caribbean: Dead Man's Chest
## # … with 3,703 more rows
```
]

---
<br><br>

Você também pode selecionar várias colunas.

```r
select(imdb, titulo, ano, orcamento)
```

```
## # A tibble: 3,713 x 3
##    titulo                                       ano orcamento
##    <chr>                                      <int>     <int>
##  1 Avatar                                      2009 237000000
##  2 Pirates of the Caribbean: At World's End    2007 300000000
##  3 The Dark Knight Rises                       2012 250000000
##  4 John Carter                                 2012 263700000
##  5 Spider-Man 3                                2007 258000000
##  6 Tangled                                     2010 260000000
##  7 Avengers: Age of Ultron                     2015 250000000
##  8 Batman v Superman: Dawn of Justice          2016 250000000
##  9 Superman Returns                            2006 209000000
## 10 Pirates of the Caribbean: Dead Man's Chest  2006 225000000
## # … with 3,703 more rows
```

---
<br><br>

Um operador `:` é muito útil para selecionar colunas consecutivas.

.tiny[

```r
select(imdb, titulo:cor)
```

```
## # A tibble: 3,713 x 5
##    titulo                                     ano diretor          duracao cor  
##    <chr>                                    <int> <chr>              <int> <chr>
##  1 Avatar                                    2009 James Cameron        178 Color
##  2 Pirates of the Caribbean: At World's End  2007 Gore Verbinski       169 Color
##  3 The Dark Knight Rises                     2012 Christopher Nol…     164 Color
##  4 John Carter                               2012 Andrew Stanton       132 Color
##  5 Spider-Man 3                              2007 Sam Raimi            156 Color
##  6 Tangled                                   2010 Nathan Greno         100 Color
##  7 Avengers: Age of Ultron                   2015 Joss Whedon          141 Color
##  8 Batman v Superman: Dawn of Justice        2016 Zack Snyder          183 Color
##  9 Superman Returns                          2006 Bryan Singer         169 Color
## 10 Pirates of the Caribbean: Dead Man's Ch…  2006 Gore Verbinski       151 Color
## # … with 3,703 more rows
```
…
- `starts_with()`: para colunas que começam com um texto padrão
- `ends_with()`: para colunas que terminam com um texto padrão
- `contains()`: para colunas que contêm um texto padrão

Selecionamos a seguir todas as colunas que começam com o texto "ator".

.tiny[

```r
select(imdb, starts_with("ator"))
```

```
## # A tibble: 3,713 x 3
##    ator_1          ator_2            ator_3              
##    <chr>           <chr>             <chr>               
##  1 CCH Pounder     Joel David Moore  Wes Studi           
##  2 Johnny Depp     Orlando Bloom     Jack Davenport      
##  3 Tom Hardy       Christian Bale    Joseph Gordon-Levitt
##  4 Daryl Sabara    Samantha Morton   Polly Walker        
##  5 J.K. Simmons    James Franco      Kirsten Dunst       
##  6 Brad Garrett    Donna Murphy      M.C. Gainey         
##  7 Chris Hemsworth Robert Downey Jr. Scarlett Johansson  
##  8 Henry Cavill    Lauren Cohan      Alan D. Purwin      
##  9 Kevin Spacey    Marlon Brando     Frank Langella      
## 10 Johnny Depp     Orlando Bloom     Jack Davenport      
## # … with 3,703 more rows
```
]

---
# Ordenando linhas

Para ordenar linhas, utilizamos a função `arrange()`. O primeiro argumento é a base de dados. Os demais argumentos são as colunas pelas quais queremos ordenar as linhas. No exemplo a seguir, ordenamos as linhas da base por ordem crescente de orçamento.

.tiny[

```r
arrange(imdb, orcamento)
```

```
## # A tibble: 3,713 x 15
##    titulo   ano diretor duracao cor   generos pais  classificacao orcamento
##    <chr>  <int> <chr>     <int> <chr> <chr>   <chr> <chr>             <int>
##  1 Tarna…  2003 Jonath…      88 Color Biogra… USA   Outros              218
##  2 My Da…  2004 Jon Gu…      90 Color Docume… USA   Livre              1100
##  3 A Pla…  2013 Benjam…      76 Color Drama|… USA   Outros             1400
##  4 The M…  2005 Anthon…      84 Color Crime|… USA   A partir de …      3250
##  5 Primer  2004 Shane …      77 Color Drama|… USA   A partir de …      7000
##  6 El Ma…  1992 Robert…      81 Color Action… USA   A partir de …      7000
##  7 Newly…  2011 Edward…      95 Color Comedy… USA   Outros             9000
##  8 Pink …  1972 John W…     108 Color Comedy… USA   A partir de …     10000
##  9 The T…  2007 Jane C…       7 Color Romanc… USA   Outros            13000
## 10 Paran…  2007 Oren P…      84 Color Horror  USA   A partir de …     15000
## # … with 3,703 more rows, and 6 more variables: receita <int>, nota_imdb <dbl>,
## #   likes_facebook <int>, ator_1 <chr>, ator_2 <chr>, ator_3 <chr>
```
]

---
<br><br>

Também podemos ordenar de forma decrescente usando a função `desc()`.

.tiny[

```r
arrange(imdb, desc(orcamento))
```

```
## # A tibble: 3,713 x 15
##    titulo   ano diretor duracao cor   generos pais  classificacao orcamento
##    <chr>  <int> <chr>     <int> <chr> <chr>   <chr> <chr>             <int>
##  1 Pirat…  2007 Gore V…     169 Color Action… USA   A partir de … 300000000
##  2 John …  2012 Andrew…     132 Color Action… USA   A partir de … 263700000
##  3 Tangl…  2010 Nathan…     100 Color Advent… USA   Livre         260000000
##  4 Spide…  2007 Sam Ra…     156 Color Action… USA   A partir de … 258000000
##  5 The D…  2012 Christ…     164 Color Action… USA   A partir de … 250000000
##  6 Aveng…  2015 Joss W…     141 Color Action… USA   A partir de … 250000000
##  7 Batma…  2016 Zack S…     183 Color Action… USA   A partir de … 250000000
##  8 Pirat…  2011 Rob Ma…     136 Color Action… USA   A partir de … 250000000
##  9 Capta…  2016 Anthon…     147 Color Action… USA   A partir de … 250000000
## 10 Avatar  2009 James …     178 Color Action… USA   A partir de … 237000000
## # … with 3,703 more rows, and 6 more variables: receita <int>, nota_imdb <dbl>,
## #   likes_facebook <int>, ator_1 <chr>, ator_2 <chr>, ator_3 <chr>
```
]

---
<br><br>

E claro, ordenar segundo duas ou mais colunas.

.tiny[

```r
arrange(imdb, desc(ano), desc(orcamento))
```

```
## # A tibble: 3,713 x 15
##    titulo   ano diretor duracao cor   generos pais  classificacao orcamento
##    <chr>  <int> <chr>     <int> <chr> <chr>   <chr> <chr>             <int>
##  1 Batma…  2016 Zack S…     183 Color Action… USA   A partir de … 250000000
##  2 Capta…  2016 Anthon…     147 Color Action… USA   A partir de … 250000000
##  3 Star …  2016 Justin…     122 Color Action… USA   A partir de … 185000000
##  4 The L…  2016 David …     110 Color Action… USA   A partir de … 180000000
##  5 X-Men…  2016 Bryan …     144 Color Action… USA   A partir de … 178000000
##  6 Suici…  2016 David …     123 Color Action… USA   A partir de … 175000000
##  7 Alice…  2016 James …     113 Color Advent… USA   Livre         170000000
##  8 Indep…  2016 Roland…     120 Color Action… USA   A partir de … 165000000
##  9 Warcr…  2016 Duncan…     123 Color Action… USA   A partir de … 160000000
## 10 Kung …  2016 Alessa…      95 Color Action… USA   Livre         145000000
## # … with 3,703 more rows, and 6 more variables: receita <int>, nota_imdb <dbl>,
## #   likes_facebook <int>, ator_1 <chr>, ator_2 <chr>, ator_3 <chr>
```
…
---
<br><br>

Também podemos fazer operações com as colunas da base dentro da função filter. O código abaixo devolve uma tabela apenas com os filmes que lucraram.

.tiny[

```r
imdb %>% filter(receita - orcamento > 0)
```

```
## # A tibble: 1,710 x 15
##    titulo   ano diretor duracao cor   generos pais  classificacao orcamento
##    <chr>  <int> <chr>     <int> <chr> <chr>   <chr> <chr>             <int>
##  1 Avatar  2009 James …     178 Color Action… USA   A partir de … 237000000
##  2 Pirat…  2007 Gore V…     169 Color Action… USA   A partir de … 300000000
##  3 The D…  2012 Christ…     164 Color Action… USA   A partir de … 250000000
##  4 Spide…  2007 Sam Ra…     156 Color Action… USA   A partir de … 258000000
##  5 Aveng…  2015 Joss W…     141 Color Action… USA   A partir de … 250000000
##  6 Batma…  2016 Zack S…     183 Color Action… USA   A partir de … 250000000
##  7 Pirat…  2006 Gore V…     151 Color Action… USA   A partir de … 225000000
##  8 Man o…  2013 Zack S…     143 Color Action… USA   A partir de … 225000000
##  9 The A…  2012 Joss W…     173 Color Action… USA   A partir de … 220000000
## 10 The A…  2012 Marc W…     153 Color Action… USA   A partir de … 230000000
## # … with 1,700 more rows, and 6 more variables: receita <int>, nota_imdb <dbl>,
## #   likes_facebook <int>, ator_1 <chr>, ator_2 <chr>, ator_3 <chr>
```
…
---
<br><br>

Naturalmente, podemos filtrar colunas categóricas. O exemplo abaixo retorna uma tabela apenas com os filmes com a Angelina Jolie Pitt ou o Brad Pitt no papel principal.

.tiny[

```r
imdb %>%
  filter(ator_1 %in% c('Angelina Jolie Pitt', "Brad Pitt"))
```

```
## # A tibble: 29 x 15
##    titulo   ano diretor duracao cor   generos pais  classificacao orcamento
##    <chr>  <int> <chr>     <int> <chr> <chr>   <chr> <chr>             <int>
##  1 Malef…  2014 Robert…      97 Color Action… USA   Livre         180000000
##  2 The C…  2008 David …     166 Color Drama|… USA   A partir de … 150000000
##  3 Kung …  2011 Jennif…      90 Color Action… USA   Livre         150000000
##  4 Troy    2004 Wolfga…     196 Color Advent… USA   A partir de … 175000000
##  5 Kung …  2008 Mark O…      92 Color Action… USA   Livre         130000000
##  6 Salt    2010 Philli…     101 Color Action… USA   A partir de … 110000000
##  7 Ocean…  2004 Steven…     125 Color Crime|… USA   A partir de … 110000000
##  8 Mr. &…  2005 Doug L…     126 Color Action… USA   A partir de … 120000000
##  9 Lara …  2001 Simon …     100 Color Action… USA   A partir de … 115000000
## 10 Ocean…  2001 Steven…     116 Color Crime|… USA   A partir de …  85000000
## # … with 19 more rows, and 6 more variables: receita <int>, nota_imdb <dbl>,
## #   likes_facebook <int>, ator_1 <chr>, ator_2 <chr>, ator_3 <chr>
```
…
```
## [1]  TRUE  TRUE  TRUE  TRUE  TRUE FALSE
```

```r
# Aplicamos essa lógica dentro da função filter, para a coluna completa
imdb %>% filter(str_detect(generos, "Action"))
```

```
## # A tibble: 832 x 15
##    titulo   ano diretor duracao cor   generos pais  classificacao orcamento
##    <chr>  <int> <chr>     <int> <chr> <chr>   <chr> <chr>             <int>
##  1 Avatar  2009 James …     178 Color Action… USA   A partir de … 237000000
##  2 Pirat…  2007 Gore V…     169 Color Action… USA   A partir de … 300000000
##  3 The D…  2012 Christ…     164 Color Action… USA   A partir de … 250000000
##  4 John …  2012 Andrew…     132 Color Action… USA   A partir de … 263700000
##  5 Spide…  2007 Sam Ra…     156 Color Action… USA   A partir de … 258000000
##  6 Aveng…  2015 Joss W…     141 Color Action… USA   A partir de … 250000000
##  7 Batma…  2016 Zack S…     183 Color Action… USA   A partir de … 250000000
##  8 Super…  2006 Bryan …     169 Color Action… USA   A partir de … 209000000
##  9 Pirat…  2006 Gore V…     151 Color Action… USA   A partir de … 225000000
## 10 The L…  2013 Gore V…     150 Color Action… USA   A partir de … 215000000
## # … with 822 more rows, and 6 more variables: receita <int>, nota_imdb <dbl>,
## #   likes_facebook <int>, ator_1 <chr>, ator_2 <chr>, ator_3 <chr>
```
]

---
# Modificando e criando novas colunas

Para modificar uma coluna existente ou criar uma nova coluna, utilizamos a função `mutate()`. O código abaixo divide os valores da coluna duração por 60, mudando a unidade de medida dessa variável de minutos para horas.

.tiny[

```r
imdb %>% mutate(duracao = duracao/60)
```

```
## # A tibble: 3,713 x 15
##    titulo   ano diretor duracao cor   generos pais  classificacao orcamento
##    <chr>  <int> <chr>     <dbl> <chr> <chr>   <chr> <chr>             <int>
##  1 Avatar  2009 James …    2.97 Color Action… USA   A partir de … 237000000
##  2 Pirat…  2007 Gore V…    2.82 Color Action… USA   A partir de … 300000000
##  3 The D…  2012 Christ…    2.73 Color Action… USA   A partir de … 250000000
##  4 John …  2012 Andrew…    2.2  Color Action… USA   A partir de … 263700000
##  5 Spide…  2007 Sam Ra…    2.6  Color Action… USA   A partir de … 258000000
##  6 Tangl…  2010 Nathan…    1.67 Color Advent… USA   Livre         260000000
##  7 Aveng…  2015 Joss W…    2.35 Color Action… USA   A partir de … 250000000
##  8 Batma…  2016 Zack S…    3.05 Color Action… USA   A partir de … 250000000
##  9 Super…  2006 Bryan …    2.82 Color Action… USA   A partir de … 209000000
## 10 Pirat…  2006 Gore V…    2.52 Color Action… USA   A partir de … 225000000
## # … with 3,703 more rows, and 6 more variables: receita <int>, nota_imdb <dbl>,
## #   likes_facebook <int>, ator_1 <chr>, ator_2 <chr>, ator_3 <chr>
```
]

---
<br><br>

Também poderíamos ter criado essa variável em uma nova coluna. Repare que a nova coluna `duracao_horas` é colocada no final da tabela.

.tiny[

```r
imdb %>% mutate(duracao_horas = duracao/60)
```

```
## # A tibble: 3,713 x 16
##    titulo   ano diretor duracao cor   generos pais  classificacao orcamento
##    <chr>  <int> <chr>     <int> <chr> <chr>   <chr> <chr>             <int>
##  1 Avatar  2009 James …     178 Color Action… USA   A partir de … 237000000
##  2 Pirat…  2007 Gore V…     169 Color Action… USA   A partir de … 300000000
##  3 The D…  2012 Christ…     164 Color Action… USA   A partir de … 250000000
##  4 John …  2012 Andrew…     132 Color Action… USA   A partir de … 263700000
##  5 Spide…  2007 Sam Ra…     156 Color Action… USA   A partir de … 258000000
##  6 Tangl…  2010 Nathan…     100 Color Advent… USA   Livre         260000000
##  7 Aveng…  2015 Joss W…     141 Color Action… USA   A partir de … 250000000
##  8 Batma…  2016 Zack S…     183 Color Action… USA   A partir de … 250000000
##  9 Super…  2006 Bryan …     169 Color Action… USA   A partir de … 209000000
## 10 Pirat…  2006 Gore V…     151 Color Action… USA   A partir de … 225000000
## # … with 3,703 more rows, and 7 more variables: receita <int>, nota_imdb <dbl>,
## #   likes_facebook <int>, ator_1 <chr>, ator_2 <chr>, ator_3 <chr>,
## #   duracao_horas <dbl>
```
…
---
<br><br>

Podemos fazer qualquer operação com uma ou mais colunas. A única regra é que o resultado da operação retorne um vetor com comprimento igual ao número de linhas da base (ou com comprimento 1 para distribuir um mesmo valor em todas as linhas). Você também pode criar/modificar quantas colunas quiser dentro de um mesmo `mutate`.

.tiny[

```r
imdb %>% 
  mutate(lucro = receita - orcamento, pais = "Estados Unidos") %>% 
  select(titulo, lucro, pais)
```

```
## # A tibble: 3,713 x 3
##    titulo                                          lucro pais          
##    <chr>                                           <int> <chr>         
##  1 Avatar                                      523505847 Estados Unidos
##  2 Pirates of the Caribbean: At World's End      9404152 Estados Unidos
##  3 The Dark Knight Rises                       198130642 Estados Unidos
##  4 John Carter                                -190641321 Estados Unidos
##  5 Spider-Man 3                                 78530303 Estados Unidos
##  6 Tangled                                     -59192738 Estados Unidos
##  7 Avengers: Age of Ultron                     208991599 Estados Unidos
##  8 Batman v Superman: Dawn of Justice           80249062 Estados Unidos
##  9 Superman Returns                             -8930592 Estados Unidos
## 10 Pirates of the Caribbean: Dead Man's Chest  198032628 Estados Unidos
## # … with 3,703 more rows
```
…
---
<br><br>

A única alteração que a função `group_by()` faz na base é a marcação de que a base está agrupada.

.tiny[

```r
imdb %>% group_by(cor)
```

```
## # A tibble: 3,713 x 15
## # Groups:   cor [3]
##    titulo   ano diretor duracao cor   generos pais  classificacao orcamento
##    <chr>  <int> <chr>     <int> <chr> <chr>   <chr> <chr>             <int>
##  1 Avatar  2009 James …     178 Color Action… USA   A partir de … 237000000
##  2 Pirat…  2007 Gore V…     169 Color Action… USA   A partir de … 300000000
##  3 The D…  2012 Christ…     164 Color Action… USA   A partir de … 250000000
##  4 John …  2012 Andrew…     132 Color Action… USA   A partir de … 263700000
##  5 Spide…  2007 Sam Ra…     156 Color Action… USA   A partir de … 258000000
##  6 Tangl…  2010 Nathan…     100 Color Advent… USA   Livre         260000000
##  7 Aveng…  2015 Joss W…     141 Color Action… USA   A partir de … 250000000
##  8 Batma…  2016 Zack S…     183 Color Action… USA   A partir de … 250000000
##  9 Super…  2006 Bryan …     169 Color Action… USA   A partir de … 209000000
## 10 Pirat…  2006 Gore V…     151 Color Action… USA   A partir de … 225000000
## # … with 3,703 more rows, and 6 more variables: receita <int>, nota_imdb <dbl>,
## #   likes_facebook <int>, ator_1 <chr>, ator_2 <chr>, ator_3 <chr>
```
…
Podemos juntar duas tabelas a partir de uma (coluna) chave utilizando a função `left_join()`. Como exempo, vamos inicialmente calcular o lucro médio dos filmes de cada diretor e salvar no objeto `tab_lucro_diretor`.

.tiny[

```r
tab_lucro_diretor <- imdb %>%
  group_by(diretor) %>% 
  summarise(lucro_medio = mean(receita - orcamento, na.rm = TRUE))

tab_lucro_diretor
```

```
## # A tibble: 1,813 x 2
##    diretor          lucro_medio
##    <chr>                  <dbl>
##  1 A. Raven Cruz            NaN
##  2 Aaron Hann               NaN
##  3 Aaron Schneider      1676553
##  4 Aaron Seltzer       28546578
##  5 Abel Ferrara       -11272676
##  6 Adam Carolla        -1394057
##  7 Adam Goldberg       -1647420
##  8 Adam Green               NaN
##  9 Adam Jay Epstein         NaN
## 10 Adam Marcus         13435068
## # … with 1,803 more rows
```
…
